PLAPCHE0003108       Shrt Name5941                  YES                            COMPLETED                      True        6472 WIP                  9999999999           CHE                                                Sathish Raj                                        CHENNAI                                            CITY CAR CARE                                                                                        testOFFICE5941@testOFFICE5941.com                                                                    20/03/2020
PLAPCOI0003062       Syndicate Impex                YES                            UNDER PROCESS                  True        6377 WIP                  9894552125           COI                                                Vasanthan M                                        COIMBATORE                                                                                                                                              jai@syndicateimpex.com                                                                               17/03/2020
PLAPCOR0003129       JK LIMITED                     YES                            COMPLETED                      True        6508 WIP                  9892230408           COR                                                N Krishnakumar                                     CORPORATE                                                                                                                                               Amit@gmail.com                                                                                       04/04/2020
PLAPCOR0003133       Preca Solutions India Private  YES                            UNDER PROCESS                  True        1307 WIP                  9000130999           HYD                                                Kedar Deshpande                                    HYDERABAD                                                                                                                                               info@preca.in                                                                                        04/04/2020
PLAPCOR0003140       First Name5964 Middle Name5964                                                               True        6499 WIP                  9999999999           CHE                                                Shubham Baliyan                                    CHENNAI                                            J K S INTERIORS                                                                                      testOFFICE5964@testOFFICE5964.com                                                                    25/05/2020
PLAPCOR0003146       First Name5964 Middle Name5964                                                               True        6499 WIP                  9999999999           CHE                                                APAC Financial Services Private Limited            CHENNAI                                            J K S INTERIORS                                                                                      testOFFICE5964@testOFFICE5964.com                                                                    25/05/2020
PLAPCOR0003149       JK LIMITED                     NO                             NA                             True        6508 WIP                  9892230408           COR                                                N Krishnakumar                                     CORPORATE                                                                                                                                               Amit@gmail.com                                                                                       13/04/2020
PLAPCOR0003150       JK LIMITED                     YES                            UNDER PROCESS                  True        6508 WIP                  9892230408           COR                                                Kedar Deshpande                                    CORPORATE                                                                                                                                               Amit@gmail.com                                                                                       13/04/2020
PLAPCOR0003157       First Name5386 Middle Name5386                                                               True        5858 WIP                  9999999999           CHE                                                Kedar Deshpande                                    CHENNAI                                            Avashiya Agencies                                                                                    testOFFICE5386@testOFFICE5386.com                                                                    26/05/2020
PLAPHYD0003056       Shrt Name5849                  NO                             NA                             True        6374 WIP                  9999999999           HYD                                                Bhanu Teja                                         HYDERABAD                                          Ms siddi vinayaka medical and General Stores                                                         testOFFICE5849@testOFFICE5849.com                                                                    16/03/2020
PLAPHYD0003105       MANUBOTHULA SUNITHA            YES                            COMPLETED                      True        6463 WIP                  7780320457           HYD                                                Annabheemoju Srikanth                              HYDERABAD                                          GEETHIKA POWER TECH                                                                                  spowerlines@gmail.com                                                                                19/03/2020
PLAPMUM0002820       Shrt Name5479                  YES                            UNDER PROCESS                  True        5955 WIP                  9999999999           MUM                                                Shubham Baliyan                                    MUMBAI                                                                                                                                                  testAPP5479@testAPP5479.com                                                                          21/02/2020
PLAPMUM0003053       Shrt Name5836                  YES                            UNDER PROCESS                  True        6359 WIP                  9999999999           MUM                                                Vaibhav Chaulkar                                   MUMBAI                                             Shree Siddhivinayak Caterers                                                                         testAPP5836@testAPP5836.com                                                                          16/03/2020
PLAPMUM0003055       Eco Rich Cosmetic India Privat NO                             NA                             True        6362 WIP                  9820068184           MUM                                                Vaibhav Chaulkar                                   MUMBAI                                                                                                                                                  anupjain@ecorichcosmetic.com                                                                         16/03/2020
PLAPMUM0003066       Shrt Name5881                  YES                            UNDER PROCESS                  True        6405 WIP                  9999999999           MUM                                                Subijoy Ghosh                                      MUMBAI                                             Excel Packaging                                                                                      testAPP5881@testAPP5881.com                                                                          17/03/2020
PLAPMUM0003074       Aruna Rajesh Shah              YES                            UNDER PROCESS                  True        6113 WIP                  9975550013           MUM                                                Shubham Baliyan                                    MUMBAI                                             Raviraj Agency                                                                                       raj.rajeshshah3411@gmail.com                                                                         18/03/2020
PLAPMUM0003101       Shrt Name5925                  YES                            COMPLETED                      True        6452 WIP                  9999999999           MUM                                                Ashraf Salmani                                     MUMBAI                                                                                                                                                  testAPP5925@testAPP5925.com                                                                          19/03/2020
PLAPSAL0003116       SRI SIVA SPINNING MILL         YES                            UNDER PROCESS                  True        6491 WIP                  9976664034           SAL                                                Sathishkumar D                                     SALEM                                                                                                                                                   srisivaspinningmaill@gmail.com                                                                       21/03/2020
PLPBAHM0003040       PRAVINBHAI MAVJIBHAI PATEL     YES                            UNDER PROCESS                  True        6354 WIP                  9825728450           AHM                                                RAKESHKUMAR PATEL                                  AHMEDABAD                                          HOTEL GOMTI                                                                                          dholupetroleum838@gmail.com                                                                          13/03/2020
PLPBBAN0002640       LAKSHMINARAYANA BABU TS        YES                            COMPLETED                      True        5453 WIP                  9845098380           BAN                                                Manjunatha S G                                     BANGALORE                                          LAKSHMI MEDICALS                                                                                     LAKSHMIMEDICALS.SDL@GMAIL.COM                                                                        03/02/2020
PLPBCHE0002957       Shrt Name5678                  YES                            UNDER PROCESS                  True        6177 WIP                  9999999999           CHE                                                Sathish P J                                        CHENNAI                                            GEMP PACK ENTERPRISES                                                                                testOFFICE5678@testOFFICE5678.com                                                                    05/03/2020
PLPBCOR0003134       PIYUSH DHIRUBHAI LATHIYA       NO                             NA                             True        5335 WIP                  9974781076           SUR                                                Invoice Discounting                                SURAT                                              MAHAKALI FABRICS                                                                                     ppatel9886@yahoo.co.in                                                                               04/04/2020
PLPBHYD0003103       Shrt Name5915                  YES                            UNDER PROCESS                  True        6444 WIP                  9999999999           HYD                                                Bhanu Teja                                         HYDERABAD                                          Sri Venkateshwara Agencies                                                                           testOFFICE5915@testOFFICE5915.com                                                                    19/03/2020
PLPBMUM0002840       Kwality Makers Snacks Private  YES                            UNDER PROCESS                  True        6015 WIP                  9819976850           MUM                                                Vaibhav Chaulkar                                   MUMBAI                                                                                                                                                  kwalitymakers.acs@gmail.com                                                                          22/02/2020
PLPBMUM0002969       Shrt Name5698                  YES                            COMPLETED                      True        6197 WIP                  9999999999           MUM                                                Ashraf Salmani                                     MUMBAI                                                                                                                                                  testAPP5698@testAPP5698.com                                                                          06/03/2020
PLPBMUM0002988       Shrt Name5734                  NO                             NA                             True        6240 WIP                  9999999999           MUM                                                Sheetal Amritsagar                                 MUMBAI                                                                                                                                                  testAPP5734@testAPP5734.com                                                                          09/03/2020
PLPBMUM0003008       Shrt Name5773                                                                                True        6284 WIP                  9999999999           MUM                                                Ashraf Salmani                                     MUMBAI                                                                                                                                                  testAPP5773@testAPP5773.com                                                                          11/03/2020
PLPTCHE0003090       Shrt Name5463                  YES                            COMPLETED                      True        5939 WIP                  9999999999           CHE                                                Bhalamurali                                        CHENNAI                                            SMOKEE  RESTAURANT                                                                                   testOFFICE5463@testOFFICE5463.com                                                                    19/03/2020
PLPTCOI0003099       SHRI ARULVEL MILLS             NO                             NA                             True        1539 WIP                  9360044277           COI                                                Vasanthan M                                        COIMBATORE                                                                                                                                              BAABUTEX@GMAIL.COM                                                                                   19/03/2020
PLPTSUR0003050       PIYUSH DHIRUBHAI LATHIYA       YES                            UNDER PROCESS                  True        5335 WIP                  9974781076           SUR                                                Pravin Raghunath Marathe                           SURAT                                              MAHAKALI FABRICS                                                                                     ppatel9886@yahoo.co.in                                                                               16/03/2020
PLPTSUR0003051       PIYUSH DHIRUBHAI LATHIYA                                                                     True        5335 WIP                  9974781076           SUR                                                Pravin Raghunath Marathe                           SURAT                                              MAHAKALI FABRICS                                                                                     ppatel9886@yahoo.co.in                                                                               16/03/2020
PMEFAHM0003113       SALUBRIS SURGICAL PRIVATE LIMI YES                            UNDER PROCESS                  True        6483 WIP                  9925032153           AHM                                                Bhavik Harsoda                                     AHMEDABAD                                          SALUBRIS SURGICAL PVT. LTD.                                                                          salubrissargical@gmail.com                                                                           20/03/2020
PMEFAHM0003114       PRAMOD RAMAJI GAIKWAD          YES                            UNDER PROCESS                  True        6489 WIP                  9537158375           AHM                                                Bhavik Harsoda                                     AHMEDABAD                                          SIDDHESH ART                                                                                         siddheshartahd@gmail.com                                                                             20/03/2020
PMEFBAN0002982       Chesa Dental Care Services Ltd                                                               True        4098 WIP                  9986545666           BAN                                                Nagaraju N                                         BANGALORE                                          Chesa Dental Care Services Ltd                                                                       Dr.vijay@chesadentalcare.com                                                                         09/03/2020
PMEFCHE0003112       Shrt Name5948                                                                                True        6481 WIP                  9999999999           CHE                                                Praveen Kumar J                                    CHENNAI                                            VANAM POWDER COATING                                                                                 testOFFICE5948@testOFFICE5948.com                                                                    20/03/2020
PMEFCOI0003071       Akbarali S                                                                                   True        6387 WIP                  9843940864           COI                                                Nagendran                                          COIMBATORE                                         A B S Polymers                                                                                       abspolymerscbe@gmail.com                                                                             18/03/2020
PMEFCOR0003122       KRISHNA MULTI PRINT (INDIA) PR                                                               True        5569 WIP                  9638151515           AHM                                                APAC Financial Services Private Limited            AHMEDABAD                                                                                                                                               acount.krishnamulty@gmail.com                                                                        26/03/2020
PMEFCOR0003143       First Name5829 Middle Name5829                                                               True        6351 WIP                  9999999999           MUM                                                Invoice Discounting                                MUMBAI                                             N B Graphics                                                                                         testAPP5829@testAPP5829.com                                                                          25/05/2020
PMEFCOR0003145       First Name5829 Middle Name5829                                                               True        6351 WIP                  9999999999           MUM                                                Invoice Discounting                                MUMBAI                                             N B Graphics                                                                                         testAPP5829@testAPP5829.com                                                                          25/05/2020
PMEFHYD0003024       LEE PHARMA LIMITED                                                                           True        3113 WIP                  9908099466           HYD                                                Mahesh Kalikivai                                   HYDERABAD                                                                                                                                               accounts@leepharma.com                                                                               12/03/2020
PMEFHYD0003082       Shrt Name5897                                                                                True        6424 WIP                  9999999999           HYD                                                Mahesh Kalikivai                                   HYDERABAD                                                                                                                                               testOFFICE5897@testOFFICE5897.com                                                                    18/03/2020
PMEFHYD0003083       Shrt Name5905                                                                                True        6432 WIP                  9999999999           HYD                                                Mahesh Kalikivai                                   HYDERABAD                                                                                                                                               testOFFICE5905@testOFFICE5905.com                                                                    18/03/2020
PMEFHYD0003102       Concord Drugs Limited                                                                        True        6458 WIP                  9849016762           HYD                                                Jakkula Rakesh                                     HYDERABAD                                                                                                                                               concordfinance2015@gmail.com                                                                         19/03/2020
PMEFMAD0003087       Suresh Mass Marketing Private                                                                True        6436 WIP                  9345174766           MAD                                                R Vinobala                                         MADURAI                                                                                                                                                 sureshmasstm@gmail.com                                                                               18/03/2020
PMEFMUM0003009       Joshi Kochuvareed Kallivalappi                                                               True         937 WIP                  9321006080           MUM                                                SUNIL MISHRA                                       MUMBAI                                             HITECH MOULDS                                                                                        ACCOUNTSV@HITECHMOULDS.COM                                                                           11/03/2020
PMEFMUM0003036       First Name5829 Middle Name5829 YES                            UNDER PROCESS                  True        6351 WIP                  9999999999           MUM                                                Rajesh Gaikwad                                     MUMBAI                                             N B Graphics                                                                                         testAPP5829@testAPP5829.com                                                                          13/03/2020
PMEFMUM0003037       Shrt Name443                                                                                 True         497 WIP                  9999999999           MUM                                                SUNIL MISHRA                                       MUMBAI                                                                                                                                                  testOFFICE443@testOFFICE443.com                                                                      13/03/2020
PMEFMUM0003069       Shrt Name5884                                                                                True        6411 WIP                  9999999999           MUM                                                SUNIL MISHRA                                       MUMBAI                                                                                                                                                  testAPP5884@testAPP5884.com                                                                          18/03/2020
PMEFMUM0003078       Shrt Name5887                                                                                True        6414 WIP                  9999999999           MUM                                                SUNIL MISHRA                                       MUMBAI                                                                                                                                                  testAPP5887@testAPP5887.com                                                                          18/03/2020
PMEFMUM0003081       Shrt Name5888                                                                                True        6415 WIP                  9999999999           MUM                                                SUNIL MISHRA                                       MUMBAI                                                                                                                                                  testAPP5888@testAPP5888.com                                                                          18/03/2020
PMEFMUM0003119       Shrt Name5966                                                                                True        6501 WIP                  9999999999           MUM                                                Rajesh Gaikwad                                     MUMBAI                                             Shree Print and Stationers                                                                           testAPP5966@testAPP5966.com                                                                          21/03/2020
PMEFMUM0003120       Joshi Kochuvareed Kallivalappi                                                               True         937 WIP                  9321006080           MUM                                                SUNIL MISHRA                                       MUMBAI                                             HITECH MOULDS                                                                                        ACCOUNTSV@HITECHMOULDS.COM                                                                           24/03/2020
PMEFMUM0003135       KRISHNA MULTI PRINT (INDIA) PR                                                               True        5569 WIP                  9638151515           AHM                                                Invoice Discounting                                AHMEDABAD                                                                                                                                               acount.krishnamulty@gmail.com                                                                        04/04/2020
PMEFMUM0003146       Nanthakumar R                                                                                True        5707 WIP                  9994813012           COI                                                ARUN KUMAR                                         COIMBATORE                                         L G Garments                                                                                         yamunanagaraj6@gmail.com                                                                             13/04/2020
PMEFMUM0003156       First Name911 Middle Name911 L                                                               True        1000 WIP                  9999999999           COI                                                Pine Lab                                           COIMBATORE                                         Ranba Castings Limited                                                                               testOFFICE911@testOFFICE911.com                                                                      26/05/2020
PMEFSAL0003091       SRI VIDYA MILLS                                                                              True        6441 WIP                  9843416179           SAL                                                Jagadeesh M                                        SALEM                                                                                                                                                   srividyamills@gmail.com                                                                              19/03/2020
PMEFSUR0003052       Shrt Name5825                                                                                True        6345 WIP                  9999999999           SUR                                                Chandrakishor prasad                               SURAT                                              MESSERS BALAJI GRAPHICS	                                                                             testCOBOR15825@testCOBOR15825.com                                                                    16/03/2020
PSFBCHE0003039       Shrt Name5821                                                                                True        6340 WIP                  9999999999           CHE                                                K Sabikvazan                                       CHENNAI                                            ARUNACHALA GOUNDER EDUCATIONAL TRUST                                                                 testOFFICE5821@testOFFICE5821.com                                                                    13/03/2020
PSFBCHE0003106       Shrt Name5047                                                                                True        5493 WIP                  9999999999           CHE                                                K Sabikvazan                                       CHENNAI                                            A K N EDUCATIONAL TRUST                                                                              testAPP5047@testAPP5047.com                                                                          20/03/2020
PSFBCOI0003063       Bharathi Educational Trust                                                                   True        6395 WIP                  9443236146           COI                                                AM Kannan                                          COIMBATORE                                                                                                                                              bvmhsschool@gmail.com                                                                                17/03/2020
PSFBCOI0003079       Sellandiamman Educational Trus                                                               True        6417 WIP                  9443370846           COI                                                Yamuna G                                           COIMBATORE                                                                                                                                              sellandiammanschool@gmail.com                                                                        18/03/2020
PSFBCOI0003080       Kumaran Educational Trust                                                                    True        6428 WIP                  9047402799           COI                                                AM Kannan                                          COIMBATORE                                                                                                                                              bvmhss@gmail.com                                                                                     18/03/2020
PSFBHYD0003064       RADHA KRISHNA EDUCATIONAL SOCI YES                            UNDER PROCESS                  True        6393 WIP                  9000130424           HYD                                                Merugu Sravan Kumar                                HYDERABAD                                                                                                                                               reddyrajashekargangasani@gmail.com                                                                   17/03/2020
PSFBHYD0003065       SRI SAI KRISHNAVENI EDUCATIONA                                                               True        6384 WIP                  9912007299           HYD                                                Merugu Sravan Kumar                                HYDERABAD                                                                                                                                               saikrishnavenischool14@gmail.com                                                                     17/03/2020
PSFBSAL0002837       Shrt Name5522                                                                                True        6002 WIP                  9999999999           SAL                                                Jagadeesh M                                        SALEM                                              Vaigai Arakkattalai                                                                                  testOFFICE5522@testOFFICE5522.com                                                                    22/02/2020
PSFBSUR0002824       SHREE KRUSHNALAL BHIKHABHAI PA                                                               True        5971 WIP                  9426879008           SUR                                                Anurag Tripathi                                    SURAT                                              SHREE KRUSHNALAL BHIKHABHAI PAREKH CHARI                                                             geniusacademy1@gmail.com                                                                             21/02/2020
PSFPAHM0002979       UMIYA EDUCATION TRUST                                                                        True        6212 WIP                  9662058463           AHM                                                BHAVESH MEHTA                                      AHMEDABAD                                          UMIYA EDUCATION TRUST	                                                                               maheshpatel7384@gmail.com                                                                            09/03/2020
PSFPCHE0003028       Shrt Name5812                                                                                True        6329 WIP                  9999999999           CHE                                                K Sabikvazan                                       CHENNAI                                            ST JOHNS TRUST                                                                                       testOFFICE5812@testOFFICE5812.com                                                                    12/03/2020
PSFPCOR0003127       SANSKAR EDU AND CH TRUST                                                                     True        6029 WIP                  9428569462           RAJ                                                Invoice Discounting                                RAJKOT                                                                                                                                                  Sanskarvidyalaya@gmail.com                                                                           26/03/2020
PSFPCOR0003136       SANSKAR EDU AND CH TRUST                                                                     True        6029 WIP                  9428569462           RAJ                                                APAC Financial Services Private Limited            RAJKOT                                                                                                                                                  Sanskarvidyalaya@gmail.com                                                                           04/04/2020
PSFPHYD0003015       LAXMI NARASIMHA EDUCATIONAL SO                                                               True        6310 WIP                  8341532777           HYD                                                Unnam Gopi Raja                                    HYDERABAD                                                                                                                                               kl.narsaiahbmgl@gmail.com                                                                            11/03/2020
PSFPHYD0003085       ST THOMAS EDUCATIONAL SOCIETY                                                                True        6434 WIP                  9494993800           HYD                                                Merugu Sravan Kumar                                HYDERABAD                                                                                                                                               razendar6789@gmail.com                                                                               18/03/2020
PSFPHYD0003104       STAR EDUCATIONAL SOCIETY                                                                     True        6466 WIP                  8074647548           HYD                                                Merugu Sravan Kumar                                HYDERABAD                                                                                                                                               kramchanderg@gmail.com	                                                                              19/03/2020
PSFPHYD0003118       Ramanujans Educational Society                                                               True        6497 WIP                  7893108684           HYD                                                Unnam Gopi Raja                                    HYDERABAD                                                                                                                                               neelimahighschool@gmail.com                                                                          21/03/2020
PSFTHYD0003025       Shrt Name678                                                                                 True         752 WIP                  9999999999           HYD                                                Merugu Sravan Kumar                                HYDERABAD                                                                                                                                               testAPP678@testAPP678.com                                                                            12/03/2020
